[
  {
    "text": "ABMDP II - Academia de Bombeiro Militar Dom Pedro II"
  },
  {
    "text": "ACE - Associação Catarinense de Ensino"
  },
  {
    "text": "AEMS - Faculdades Integradas de Três Lagoas"
  },
  {
    "text": "AESA - Anhanguera Educacional"
  },
  {
    "text": "AESPI - Associação de Ensino Superior do Piauí"
  },
  {
    "text": "AFA - Academia da Força Aérea"
  },
  {
    "text": "ALFA - Faculdade Alves Faria"
  },
  {
    "text": "ALIANÇA - Faculdade Aliança"
  },
  {
    "text": "AMAN - Academia Militar de Agulhas Negras"
  },
  {
    "text": "APM-MG - Academia de Polícia Militar de Minas Gerais"
  },
  {
    "text": "APMBB - Academia de Polícia Militar do Barro Branco"
  },
  {
    "text": "APMDJVI - Academia de Polícia Militar Dom João VI"
  },
  {
    "text": "ASMEC - Associação Sul Mineira de Educação e Cultura"
  },
  {
    "text": "ASPER - Associação Paraibana de Ensino Renovado"
  },
  {
    "text": "AVEC - Associação Vilhenense de Educação e Cultura"
  },
  {
    "text": "BANDTEC - Faculdade de Tecnologia Bandeirantes"
  },
  {
    "text": "BSP - Business School São Paulo"
  },
  {
    "text": "CAMPO REAL - Faculdade Campo Real"
  },
  {
    "text": "Campus de Santo André da Universidade Federal do ABC - UFABC."
  },
  {
    "text": "Campus de São José dos Campos da Universidade Federal de São Paulo - Unifesp."
  },
  {
    "text": "CASTELLI - Escola Superior de Hotelaria Castelli"
  },
  {
    "text": "Cathedral - Faculdades Cathedral"
  },
  {
    "text": "CATHEDRAL - Faculdades Cathedral-Barra do Garças"
  },
  {
    "text": "CBM - Centro Universitário Barão de Mauá"
  },
  {
    "text": "CEAMA - Centro de Educação da Amazônia"
  },
  {
    "text": "CEAP - Centro de Ensino Superior do Amapá"
  },
  {
    "text": "CECON - Centro Educacional Conceição Nunes"
  },
  {
    "text": "CEFET-MG - Centro Federal de Educação Tecnológica de Minas Gerais"
  },
  {
    "text": "CEFET/RJ - Centro Federal de Educação Tecnológica Celso Suckow da Fonseca"
  },
  {
    "text": "CELSO LISBOA - Centro Universitário Celso Lisboa"
  },
  {
    "text": "CENSI - Centro de Ensino Superior de Itabira"
  },
  {
    "text": "CENTEC - Falcudade de Tecnologia CENTEC (Na prática, é como se fosse estadual)"
  },
  {
    "text": "CESAT - Escola de Ensino Superior Anísio Teixeira"
  },
  {
    "text": "CESCAGE - Centro de Ensino Superior dos Campos Gerais"
  },
  {
    "text": "CESF - Centro de Ensino Superior Cenecista de Farroupilha"
  },
  {
    "text": "Cesf - Instituto de Ensino Superior Fucapi"
  },
  {
    "text": "CESMAC - Centro de Estudos Superiores de Maceió"
  },
  {
    "text": "CEST - Faculdade Santa Terezinha (São Luís)"
  },
  {
    "text": "CESUC - Centro de Ensino Superior de Catalão [4]"
  },
  {
    "text": "CESUFOZ - Centro de Ensino Superior de Foz do Iguaçu"
  },
  {
    "text": "CESUMAR - Centro Universitário de Maringá"
  },
  {
    "text": "CESUPA - Centro Universitário do Pará"
  },
  {
    "text": "CESV - Centro de Ensino Superior de Vitória"
  },
  {
    "text": "CET - Centro de Educação Tecnológico"
  },
  {
    "text": "CEUB - Centro Universitário de Brasília"
  },
  {
    "text": "CEULJI/ULBRA - Centro Universitário Luterano de Ji-Paraná"
  },
  {
    "text": "CEULP/ULBRA - Centro Universitário Luterano de Palmas"
  },
  {
    "text": "CEUNSP - Centro Universitário Nossa Senhora do Patrocínio"
  },
  {
    "text": "CEUT - Centro de Ensino Unificado de Teresina"
  },
  {
    "text": "CIABA - Centro de Instrução Almirante Braz de Aguiar"
  },
  {
    "text": "CIAGA - Centro de Instrução Almirante Graça Aranha"
  },
  {
    "text": "Ciesa - Centro Universitário de Ensino Superior do Amazonas"
  },
  {
    "text": "CLARETIANO - centro universitário"
  },
  {
    "text": "CNECSAN - Faculdade CNEC Santo Ângelo"
  },
  {
    "text": "CUEA - Centro Universitário Eaprenda Elearning"
  },
  {
    "text": "CUFSA - Centro Universitário Fundação Santo André[17]"
  },
  {
    "text": "CUSC - Centro Universitário São Camilo"
  },
  {
    "text": "DEVRY - DeVry João Pessoa"
  },
  {
    "text": "DOCTUM - Rede de Ensino Doctum"
  },
  {
    "text": "DOMPEDRO - Faculdades Integradas Dom Pedro II"
  },
  {
    "text": "Edifício da reitoria da Universidade Federal de Ouro Preto."
  },
  {
    "text": "EDUVALE - Faculdade de Ciências Sociais Aplicadas do Vale do São Lourenço"
  },
  {
    "text": "EEK - Escola de Engenharia Kennedy"
  },
  {
    "text": "EEP/FUMEP - Escola de Engenharia de Piracicaba[18]"
  },
  {
    "text": "EEWB - Escola de Enfermagem Wenceslau Braz"
  },
  {
    "text": "EMESCAM - Escola Superior de Ciências da Santa Casa de Misericórdia de Vitória"
  },
  {
    "text": "EN - Escola Naval"
  },
  {
    "text": "ENCE - Escola Nacional de Ciências Estatísticas"
  },
  {
    "text": "ESAC - Escola Superior de Aviação Civil"
  },
  {
    "text": "ESAGS - Escola Superior de Administração e Gestão"
  },
  {
    "text": "ESAMAZ - Escola Superior da Amazônia"
  },
  {
    "text": "Esbam - Escola Superior Batista do Amazonas"
  },
  {
    "text": "ESBJ - Faculdade Maurício de Nassau"
  },
  {
    "text": "ESCS - Escola Superior de Ciências da Saúde"
  },
  {
    "text": "ESDHC - Escola Superior Dom Helder Câmara"
  },
  {
    "text": "ESEFIC - Escola Superior de Cruzeiro \"Prefeito Hamilton Vieira Mendes"
  },
  {
    "text": "ESEFJ - Escola Superior de Educação Física de Jundiaí"
  },
  {
    "text": "ESFA - Escola Superior São Francisco de Assis"
  },
  {
    "text": "ESMAC - Escola Superior Madre Celeste"
  },
  {
    "text": "ESMARGS - Escola Superior de Música e Artes do Rio Grande do Sul"
  },
  {
    "text": "ESPM - Escola Superior de Propaganda e Marketing"
  },
  {
    "text": "ESPM-RIO - Escola Superior de Propaganda e Marketing"
  },
  {
    "text": "EST - Faculdades EST"
  },
  {
    "text": "Estácio - Estácio Atual"
  },
  {
    "text": "ESTÁCIO - Faculdade Estácio de Sergipe [23]"
  },
  {
    "text": "ESTÁCIO FAP - Estácio de Sá Faculdade do Pará"
  },
  {
    "text": "ESTÁCIO FIC - Faculdade Integrada do Ceará"
  },
  {
    "text": "FA - Faculdade Atlântico [32]"
  },
  {
    "text": "FA7 - Faculdade 7 de Setembro"
  },
  {
    "text": "FAA - Faculdade Anhanguera de Anápolis"
  },
  {
    "text": "FAA & IESA - Associação de Ensino Superior de Alagoas"
  },
  {
    "text": "FAAB - Faculdade Alfa Brasil"
  },
  {
    "text": "FAACH - Faculdade Santa Rita de Chapecó"
  },
  {
    "text": "FAACS - Faculdade Anglo-Americano de Caxias do Sul [14] - Grupo Educacional"
  },
  {
    "text": "FAACZ - Faculdade de Aracruz"
  },
  {
    "text": "FAAM - Faculdade da Amazônia"
  },
  {
    "text": "FAAMA - Faculdade Adventista da Amazônia"
  },
  {
    "text": "Faao - Faculdade da Amazônia Ocidental"
  },
  {
    "text": "FAAP - Fundação Armando Álvares Penteado"
  },
  {
    "text": "FAAR - Faculdades Associadas de Ariquemes"
  },
  {
    "text": "FABAVI - Faculdade Batista de Vitoria"
  },
  {
    "text": "FABEL - Faculdade de Belém"
  },
  {
    "text": "FABRAN - Faculdade Brasil Norte"
  },
  {
    "text": "FAC - Faculdade Arquidiocesana de Curvelo"
  },
  {
    "text": "Fac - Faculdade Católica de Anápolis"
  },
  {
    "text": "FAC - Faculdade Curitibana"
  },
  {
    "text": "FAC - Faculdade de Campina Grande"
  },
  {
    "text": "FAC - Faculdades Cearenses"
  },
  {
    "text": "FACAMP - Faculdades de Campinas"
  },
  {
    "text": "FACAPA - Faculdade Católica de Pouso Alegre"
  },
  {
    "text": "FACAR - Faculdade de Aracaju [29]"
  },
  {
    "text": "FACC - Faculdade Concórdia"
  },
  {
    "text": "FACCAMP - Faculdade de Campo Limpo Paulista"
  },
  {
    "text": "FACCAT - Faculdades de Taquara"
  },
  {
    "text": "FACDO - Faculdade Católica Dom Orione"
  },
  {
    "text": "FACE - Faculdade Casa do Estudante"
  },
  {
    "text": "FACE - Faculdade Evolutivo"
  },
  {
    "text": "FACECA - Faculdade Cenecista de Varginha"
  },
  {
    "text": "FACED - Faculdade de Ciências Contabeis de Divinópolis"
  },
  {
    "text": "FACEG - Faculdade Evangelica de Goianesia"
  },
  {
    "text": "FACELI - Faculdade de Ensino Superior de Linhares"
  },
  {
    "text": "FACEM - Faculdade do Estado do Maranhão (São Luís)"
  },
  {
    "text": "FACEMA - Faculdade de Ciências e Tecnologia do Maranhão (Caxias)"
  },
  {
    "text": "FACEMG - Faculdade de Ensino de Minas Gerais"
  },
  {
    "text": "FACENE - Faculdade de Enfermagem Nova Esperança"
  },
  {
    "text": "Facene/RN - Faculdade de Enfermagem e Medicina Nova Esperança de Mossoró"
  },
  {
    "text": "FACENSA - Faculdade Cenecista Nossa Senhora dos Anjos"
  },
  {
    "text": "FACER - Faculdade de Ciências de Rubiataba"
  },
  {
    "text": "FACERES - Faculdade de Ceres"
  },
  {
    "text": "FACES - Faculdade do Espírito Santo"
  },
  {
    "text": "FACESM - Faculdade de Ciências Sociais Aplicadas do Sul de Minas"
  },
  {
    "text": "FACETE - Faculdade de Ensino Tecnológico do Estado do Pará"
  },
  {
    "text": "FACETEN - Faculdade de Ciências, Educação e Teologia do Norte do Brasil"
  },
  {
    "text": "Facex - Faculdade de Ciências, Cultura e Extensão do RN"
  },
  {
    "text": "FACHA - Faculdades Integradas Hélio Alonso"
  },
  {
    "text": "FACI - Faculdade Ideal"
  },
  {
    "text": "FACIC - Faculdade de Ciências Humanas de Cruzeiro"
  },
  {
    "text": "FACICA - Faculdade de Ciências da Saúde de Campos Gerais"
  },
  {
    "text": "FACICESP - FACULDADES INTEGRADAS ICESP - UNICESP - Brasília"
  },
  {
    "text": "FACID - Faculdade Integral Diferencial"
  },
  {
    "text": "FACIMA - Faculdade da Cidade de Maceió"
  },
  {
    "text": "FACIMED - Faculdade de Ciências Biomédicas de Cacoal"
  },
  {
    "text": "FACIMP - Faculdade de Imperatriz"
  },
  {
    "text": "FACIP - Faculdade Ipiranga"
  },
  {
    "text": "FACIPLAC - Faculdade de Ciência e Tecnologia do Planalto Central"
  },
  {
    "text": "FACIT - Faculdade de Ciências do Tocantins"
  },
  {
    "text": "FACITEC - Faculdade de Ciências Sociais e Tecnológicas"
  },
  {
    "text": "Facmais Faculdade de Inhumas"
  },
  {
    "text": "FACMIL - Faculdade de Administração de São José do Rio Preto"
  },
  {
    "text": "FACOS - Faculdade Cenecista de Osório"
  },
  {
    "text": "FACSUL - Faculdade Mato Grosso do Sul"
  },
  {
    "text": "FACSUM - Faculdade do Sudeste Mineiro"
  },
  {
    "text": "FACTO - Faculdade Católica do Tocantins"
  },
  {
    "text": "FACTU - Faculdade de Ciências e Tecnologia de Unaí"
  },
  {
    "text": "FADAF - Faculdade de Direito de Alta Floresta"
  },
  {
    "text": "FADI - Faculdade de Direito de Sorocaba"
  },
  {
    "text": "FADISC - Faculdades Integradas de São Carlos"
  },
  {
    "text": "Fadisi - Faculdade Diocesana São José"
  },
  {
    "text": "FADISMA - Faculdade de Direito de Santa Maria"
  },
  {
    "text": "FADMINAS - Faculdades Integradas Adventistas de Minas Gerais"
  },
  {
    "text": "FAE - Faculdade Anglicana de Erechim"
  },
  {
    "text": "FAE - Faculdades Equipe - Sapucaia do Sul"
  },
  {
    "text": "FAE - FAE Centro Universitário[6]"
  },
  {
    "text": "FAECE - Faculdade de Ensino e Cultura do Ceará"
  },
  {
    "text": "FAEMA - Faculdade de Educação e Meio Ambiente"
  },
  {
    "text": "FAESA - Faculdades Integradas Espírito-Santenses"
  },
  {
    "text": "FAETERJ - Faculdade de Educação Tecnológica do Estado do Rio de Janeiro[2]"
  },
  {
    "text": "FAEV/UNESC - Faculdade de Educação e Cultura de Vilhena"
  },
  {
    "text": "FAFEM - Faculdades da Fundação de Ensino de Mococa"
  },
  {
    "text": "FAFIA - Faculdade de Filosofia Ciências e Letras de Alegre"
  },
  {
    "text": "FAFIC - Faculdade de Filosofía, Ciências e Letras de Cajazeiras"
  },
  {
    "text": "FAFIG - Faculdade de Foz do Iguaçu"
  },
  {
    "text": "FAFIL - Faculdade de Filosofía Ciências e Letras"
  },
  {
    "text": "FAFOR - Faculdade de Fortaleza"
  },
  {
    "text": "FAG - Faculdade Guairacá"
  },
  {
    "text": "FAG - Faculdade Guaraí"
  },
  {
    "text": "FAG - Fundação Assis Gurgacz"
  },
  {
    "text": "FAGAMMON - Faculdade Presbiteriana Gammon"
  },
  {
    "text": "FAI - Faculdades Adamantinenses Integradas"
  },
  {
    "text": "FAIBI - Faculdade de Filosofia, Ciências e Letras de Ibitinga"
  },
  {
    "text": "FAJAR - Faculdade Jaguariaíva"
  },
  {
    "text": "FAJAR - Faculdade Jardins [31]"
  },
  {
    "text": "FAL - Faculdade de Natal"
  },
  {
    "text": "Fal - Faculdade Literatus"
  },
  {
    "text": "FALS - Faculdade de Ciências Aplicadas Doutor Leão Sampaio"
  },
  {
    "text": "FALS - Faculdade do Litoral Sul Paulista"
  },
  {
    "text": "FAM - Faculdade Antonio Meneghetti"
  },
  {
    "text": "FAM - Faculdade de Americana"
  },
  {
    "text": "FAMA - Faculdade Amadeus [25]"
  },
  {
    "text": "FAMA - Faculdade Atenas Maranhense"
  },
  {
    "text": "FAMA - Faculdade da Amazônia"
  },
  {
    "text": "FAMA - Faculdade do Amapá"
  },
  {
    "text": "FAMAZ - Faculdade Metropolitana da Amazônia"
  },
  {
    "text": "FAMEMA - Faculdade de Medicina de Marília"
  },
  {
    "text": "FAMERP - Faculdade de Medicina de São José do Rio Preto"
  },
  {
    "text": "FAMES - Faculdade De Musica do Espírito Santo\" Mauricio de Oliveira"
  },
  {
    "text": "Fameta - Faculdade Meta"
  },
  {
    "text": "Fametro - Faculdade Metropolitana de Manaus"
  },
  {
    "text": "Fanec - Faculdade Natalense de Ensino e Cultura"
  },
  {
    "text": "FANESE - Faculdade de Administração e Negócios de Sergipe [24]"
  },
  {
    "text": "FANP - Faculdade do Noroeste Paranaense"
  },
  {
    "text": "FAP - Faculdade do Baixo Paranaíba (Chapadinha)"
  },
  {
    "text": "FAP - Faculdade Paraibana"
  },
  {
    "text": "FAP - Faculdade Paraíso do Ceará"
  },
  {
    "text": "FAP - Faculdade Piauiense"
  },
  {
    "text": "FAP - Faculdade Pitágoras"
  },
  {
    "text": "FAP - Faculdade Santa Rita Palmitos"
  },
  {
    "text": "FAPA - Faculdade Porto-Alegrense"
  },
  {
    "text": "FAPAL - Faculdade de Palmas"
  },
  {
    "text": "FAPAN - Faculdade do Pantanal"
  },
  {
    "text": "FAPAN - Faculdade Pan Amazônica"
  },
  {
    "text": "FAPAR - Faculdade Paranaense"
  },
  {
    "text": "FAPCOM - Faculdade Paulus de Comunicação e Tecnologia"
  },
  {
    "text": "FAPECS - Instituto de Pesquisa em Ciências da Saude"
  },
  {
    "text": "FAPEN - Faculdade Paraense de Ensino"
  },
  {
    "text": "FAPI - Faculdade do Piauí"
  },
  {
    "text": "FAPI - Faculdades de Pinhais"
  },
  {
    "text": "FARES - Faculdade Roraimense de Ensino Superior"
  },
  {
    "text": "FARESC - Faculdades Integradas Santa Cruz de Curitiba"
  },
  {
    "text": "FARN - Faculdade Natalense para o Desenvolvimento do Rio Grande do Norte"
  },
  {
    "text": "FARO - Faculdade de Ciências Humanas, Exatas e Letras de Rondônia"
  },
  {
    "text": "FARR - Faculdade Reinaldo Ramos"
  },
  {
    "text": "FAS - Faculdade Ari de Sá"
  },
  {
    "text": "FASAM - Faculdade Sul-Americana"
  },
  {
    "text": "FASE - Faculdade da Serra"
  },
  {
    "text": "FASEC - Faculdade Serra do Carmo"
  },
  {
    "text": "FASEP - Faculdade Serrana"
  },
  {
    "text": "FASER - Faculdade Santa Emília de Rodat"
  },
  {
    "text": "FASER - Faculdade Sergipana [28]"
  },
  {
    "text": "FASF - Faculdade Sagrada Família"
  },
  {
    "text": "FASF/Unisa - Faculdade de Filosofia, Ciências e Letras do Alto São Francisco"
  },
  {
    "text": "FASIPE - Faculdade FASIPE"
  },
  {
    "text": "FASP - Faculdade São Francisco da Paraíba"
  },
  {
    "text": "Fasug - Faculdade do Sudeste Goiano"
  },
  {
    "text": "FATE - Faculdade Ateneu"
  },
  {
    "text": "FATE - Faculdade Ateneu"
  },
  {
    "text": "FATEB - Faculdade de Ciências e Tecnologia de Birigui"
  },
  {
    "text": "FATEB - Faculdade de Telêmaco Borba"
  },
  {
    "text": "FATEC - Faculdade de Tecnologia de João Pessoa"
  },
  {
    "text": "FATEC - Faculdade de Tecnologia do Estado de São Paulo"
  },
  {
    "text": "FATEC - Faculdade de Teologia e Ciências [6]"
  },
  {
    "text": "FATECPB - Faculdade de Tecnología da Paraíba"
  },
  {
    "text": "FATENE - Faculdade Terra Nordeste"
  },
  {
    "text": "Fatern Gama Filho - Faculdade de Excelência do Rio Grande do Norte"
  },
  {
    "text": "FAUC - Faculdade Cuiabá"
  },
  {
    "text": "FAUSB - Faculdade Desembargador Sávio Brandão"
  },
  {
    "text": "FAVAP - Faculdades Vale do Piancó"
  },
  {
    "text": "FAVENORTE - Instituto Superior de Educação Verde Norte"
  },
  {
    "text": "FAVI - Associação Vitoriana de Ensino Superior"
  },
  {
    "text": "Favi/FACES - Faculdade do Espírito Santo"
  },
  {
    "text": "FAZP - Faculdade Zumbi dos Palmares"
  },
  {
    "text": "FAZU - Faculdades Associadas de Uberaba"
  },
  {
    "text": "FBNCTSB - Faculdade Boas Novas de Ciências Teológicas, Sociais e Biotecnológicas"
  },
  {
    "text": "FCAT - Faculdade de Castanhal"
  },
  {
    "text": "FCB - Faculdade Castelo Branco"
  },
  {
    "text": "FCC - Faculdade Câmara Cascudo"
  },
  {
    "text": "FCC - Faculdade Católica do Ceará"
  },
  {
    "text": "FCDA - Faculdade Drummond"
  },
  {
    "text": "FCF - Faculdade Católica de Fortaleza [2]"
  },
  {
    "text": "FCG - Faculdade Campo Grande"
  },
  {
    "text": "FCL - Faculdade Cásper Líbero"
  },
  {
    "text": "FCM - Faculdade de Ciências Médicas de Campina Grande"
  },
  {
    "text": "FCM-PB - Faculdade de Ciências Médicas da Paraíba"
  },
  {
    "text": "FCMMG - Faculdade de Ciências Médicas de Minas Gerais"
  },
  {
    "text": "FCMS/JF - Faculdade de Ciências Médicas e da Saúde de Juiz de Fora"
  },
  {
    "text": "FCMSCSP - Faculdade de Ciências Médicas da Santa Casa de São Paulo"
  },
  {
    "text": "FCMV - Faculdade Candido Mendes de Vitória"
  },
  {
    "text": "FCNSN - Faculdade Católica Nossa Senhora Das Neves"
  },
  {
    "text": "FCR - Faculdade Cândido Rondon"
  },
  {
    "text": "FCRN - Faculdade Católica do Rio Grande do Norte"
  },
  {
    "text": "FCRS - Faculdade Católica Rainha do Sertão"
  },
  {
    "text": "FDF - Faculdade de Direito de Franca"
  },
  {
    "text": "FDSBC - Faculdade de Direito de São Bernardo do Campo"
  },
  {
    "text": "FDSM - Faculdade de Direito do Sul de Minas"
  },
  {
    "text": "FDV - Faculdades Integradas de Vitória"
  },
  {
    "text": "FEA - Fundação Educacional Araçatuba"
  },
  {
    "text": "FEAD - Faculdade de Estudos Administrativos de Minas Gerais"
  },
  {
    "text": "FEAPA - Faculdade de Estudos Avançados do Pará"
  },
  {
    "text": "FEBASP - Centro Universitário Belas Artes de São Paulo"
  },
  {
    "text": "FECAP - Fundação Escola de Comércio Álvares Penteado"
  },
  {
    "text": "FECIPAR - Faculdade de Educação Ciências e Letras de Paraíso"
  },
  {
    "text": "FEEVALE - Universidade Feevale"
  },
  {
    "text": "FEF - Faculdade Evilásio Formiga"
  },
  {
    "text": "FEF - Fundação Educacional de Fernandópolis"
  },
  {
    "text": "FEI - Centro Universitário FEI"
  },
  {
    "text": "FEITEP - Faculdade de Engenharia e Inovação Técnico Profissional[9]"
  },
  {
    "text": "FEMA - Escola Técnica e Superior Machado de Assis - Santa Rosa"
  },
  {
    "text": "FeMASS - Faculdade Professor Miguel Ângelo da Silva Santos - Macaé"
  },
  {
    "text": "FEMG - Faculdade de Engenharia de Minas Gerais"
  },
  {
    "text": "FEPAR - Faculdade Evangélica do Paraná[7]"
  },
  {
    "text": "FESAM - Faculdade de Ensino Superior da Amazônia"
  },
  {
    "text": "FESC - Fundação de Ensino Superior de Clevelândia"
  },
  {
    "text": "FESP - Faculdade de Ensino Superior da Paraíba"
  },
  {
    "text": "FESPSP - Fundação Escola de Sociologia e Política de São Paulo"
  },
  {
    "text": "FEST - Faculdade de Educação Santa Terezinha (Imperatriz)"
  },
  {
    "text": "FESVIP - Faculdade de Enfermagem São Vicente de Paula"
  },
  {
    "text": "FFB - Faculdade Farias Brito"
  },
  {
    "text": "FFCL - Faculdade de Filosofia Ciências e Letras de São José do Rio Pardo"
  },
  {
    "text": "FFSD - Faculdade de Filosofia Santa Doroteia"
  },
  {
    "text": "FG - Faculdade Guarapuava"
  },
  {
    "text": "FGV - Fundação Getulio Vargas"
  },
  {
    "text": "FGV - Fundação Getúlio Vargas"
  },
  {
    "text": "FIAA - Faculdades Integradas Anglo-Americano"
  },
  {
    "text": "FIAP - Faculdade de Informática e Administração Paulista"
  },
  {
    "text": "FIAR - Faculdades Integradas de Ariquemes"
  },
  {
    "text": "FIBRA - Faculdade Integrada Brasil Amazônia"
  },
  {
    "text": "FIES - Faculdades Integradas Espírita"
  },
  {
    "text": "FIESC - Faculdade Integrada de Ensino Superior de Colinas"
  },
  {
    "text": "FIJ - Faculdades Integradas de Jacarepaguá"
  },
  {
    "text": "FIMCA - Faculdades Integradas Aparício Carvalho"
  },
  {
    "text": "FIO - Faculdades Integradas de Ourinhos"
  },
  {
    "text": "FIRB - Faculdades Integradas Rio Branco"
  },
  {
    "text": "FIRB - Faculdades Integradas Rio Branco"
  },
  {
    "text": "FISMA - Faculdade Integrada de Santa Maria"
  },
  {
    "text": "FIT - Faculdade Impacta Tecnologia"
  },
  {
    "text": "FIT - Faculdades Integradas do Tapajós (Santarém)"
  },
  {
    "text": "FITO - Fundação Instituto Tecnológico de Osasco"
  },
  {
    "text": "FITS - Faculdade Integrada Tiradentes"
  },
  {
    "text": "FJF - Faculdade Juiz de Fora"
  },
  {
    "text": "FJN - Faculdade de Juazeiro do Norte"
  },
  {
    "text": "FJP - Fundação João Pinheiro"
  },
  {
    "text": "FLAMINGO - Faculdade Flamingo"
  },
  {
    "text": "FLF - Faculdade Luciano Feijão"
  },
  {
    "text": "FMABC - Faculdade de Medicina do ABC"
  },
  {
    "text": "FMB - Faculdade Montes Belos"
  },
  {
    "text": "FMC - Faculdade de Medicina de Campos"
  },
  {
    "text": "FMC - Faculdades Milton Campos"
  },
  {
    "text": "FMF - Faculdade Martha Falcão"
  },
  {
    "text": "FMG - Faculdade Metodista Granbery"
  },
  {
    "text": "FMIT - Faculdade de Medicina de Itajubá"
  },
  {
    "text": "FMJ - Faculdade de Medicina de Juazeiro do Norte"
  },
  {
    "text": "FMJ - Faculdade de Medicina de Jundiaí"
  },
  {
    "text": "FML - Faculdade Metropolitana Londrinense"
  },
  {
    "text": "FMM - Faculdade Metropolitana de Marabá"
  },
  {
    "text": "FMP - Faculdade Municipal de Palhoça"
  },
  {
    "text": "FMPFM - Faculdade Municipal Professor Franco Montoro de Mogi Guaçu"
  },
  {
    "text": "FMS - Faculdade Mario Schenberg"
  },
  {
    "text": "FMU - Centro Universitário das Faculdades Metropolitanas Unidas"
  },
  {
    "text": "FNC - Faculdade Nossa Cidade"
  },
  {
    "text": "FOC - Faculdades Oswaldo Cruz"
  },
  {
    "text": "Fom - Faculdade de Odontologia de Manaus"
  },
  {
    "text": "FPA - Faculdade Pan Americana"
  },
  {
    "text": "FPAS - Faculdade Pitágoras de Administração Superior"
  },
  {
    "text": "FPB - Faculdade Internacional da Paraíba"
  },
  {
    "text": "FPB - Faculdade Potiguar da Paraíba"
  },
  {
    "text": "FPD - Faculdade Pio Décimo [22]"
  },
  {
    "text": "FPMG - Faculdade Promove de Minas Gerais"
  },
  {
    "text": "FPP - Faculdades Pequeno Príncipe"
  },
  {
    "text": "FPPD - Faculdade Paraibana de Processamento de Dados"
  },
  {
    "text": "FPU - Faculdade Politécnica de Uberlândia"
  },
  {
    "text": "FRB - Faculdades Integradas Rio Branco"
  },
  {
    "text": "FSA - Faculdade Santo Agostinho"
  },
  {
    "text": "FSA - Faculdades Santo Agostinho"
  },
  {
    "text": "FSB/RJ - Faculdade de São Bento do Rio de Janeiro"
  },
  {
    "text": "FSDB - Faculdade Salesiana Dom Bosco"
  },
  {
    "text": "FSG - Faculdade da Serra Gaúcha"
  },
  {
    "text": "FSL - Faculdade São Lucas"
  },
  {
    "text": "FSL - Faculdade São Luís"
  },
  {
    "text": "FSLF - Faculdade São Luis de França [26]"
  },
  {
    "text": "FSM - Faculdade Santa María"
  },
  {
    "text": "FSMA - Faculdade Salesiana de Macaé"
  },
  {
    "text": "FT - Faculdade Táhirih"
  },
  {
    "text": "FTA - Faculdade de Tecnologia Apoena"
  },
  {
    "text": "FTB - Faculdades Integradas da Terra de Brasília Descredenciada (Despacho n.º 59-SESu/Mec, de 2 de maio de 2011)"
  },
  {
    "text": "FTEC - Faculdade de Tecnologia TecBrasil"
  },
  {
    "text": "FTESM - Fundação Técnico Educacional Souza Marques"
  },
  {
    "text": "FTML - Faculdade de Teologia Metodista Livre"
  },
  {
    "text": "FTSA - Faculdade Teológica Sul Americana"
  },
  {
    "text": "FTT - Faculdade de Tecnologia Termomecânica"
  },
  {
    "text": "FUCAPE - Fundação Instituto Capixaba de Pesquisas em Contabilidade, Economia e Finanças"
  },
  {
    "text": "FUMEC - Fundação Mineira de Educação e Cultura"
  },
  {
    "text": "FUNCESI - Fundação Comunitária de Ensino Superior de Itabira"
  },
  {
    "text": "FUNEC - Faculdades Integradas de Santa Fé do Sul"
  },
  {
    "text": "FUNEDI - Fundação Educacional de Divinópolis"
  },
  {
    "text": "FUNENSEG - Escola Nacional de Seguros"
  },
  {
    "text": "FUNJOB - Faculdade de Medicina de Barbacena"
  },
  {
    "text": "Funorte - Faculdades Unidas do Norte de Minas"
  },
  {
    "text": "FURB - Fundação Universidade Regional de Blumenau"
  },
  {
    "text": "FURG - Universidade Federal do Rio Grande"
  },
  {
    "text": "FVJ - Faculdade Vale do Jaguaribe"
  },
  {
    "text": "IACS - Instituto Adventista Cruzeiro do Sul"
  },
  {
    "text": "Iaes - Faculdade do Amazonas"
  },
  {
    "text": "IAESUP - Faculdades e Colégio Aphonsiano"
  },
  {
    "text": "IBHES - Instituto Belo Horizonte de Ensino Superior"
  },
  {
    "text": "IBMEC - Instituto Brasileiro de Mercado e Capitais"
  },
  {
    "text": "IBMR - Centro Universitário IBMR"
  },
  {
    "text": "ICEC - Instituto Cuiabá de Ensino e Cultura"
  },
  {
    "text": "ICF - Instituto Camillo Filho"
  },
  {
    "text": "IDEAU - Instituto de Desenvolvimento Educacional do Alto Uruguai - Getúlio Vargas"
  },
  {
    "text": "IEMA - Instituto Estadual do Maranhão"
  },
  {
    "text": "IEPO - Instituto de Ensino e Pesquisa Objetivo"
  },
  {
    "text": "IERSA - Instituto Educacional Raimundo Sá (Faculdade Raimundo Sá)"
  },
  {
    "text": "Iesacre - Instituição de Ensino Superior do Acre"
  },
  {
    "text": "IESAM - Instituto de Ensinos Superiores da Amazônia"
  },
  {
    "text": "IESAP - Instituto de Ensino Superior do Amapá"
  },
  {
    "text": "IESB - Instituto de Educação Superior de Brasília"
  },
  {
    "text": "IESF - Instituto de Ensino Superior da Fupesp"
  },
  {
    "text": "IESF - Instituto de Ensino Superior de Fortaleza"
  },
  {
    "text": "IESF - Instituto de Ensino Superior Franciscano (Paço do Lumiar)"
  },
  {
    "text": "IESMT - Instituto de Ensino Superior de Mato Grosso"
  },
  {
    "text": "IESP - Instituto de Educação Superior da Paraíba"
  },
  {
    "text": "IESP - Instituto de Educação Superior de Patrocínio"
  },
  {
    "text": "IESRIVER - Instituto de Ensino Superior de Rio Verde"
  },
  {
    "text": "IF Goiano - Instituto Federal Goiano"
  },
  {
    "text": "Ifac - Instituto Federal do Acre"
  },
  {
    "text": "Ifal - Instituto Federal de Alagoas"
  },
  {
    "text": "IFAM - Instituto Federal do Amazonas"
  },
  {
    "text": "IFAP - Instituto Federal do Amapá"
  },
  {
    "text": "IFB - Instituto Federal de Brasília"
  },
  {
    "text": "IFC - Instituto Federal Catarinense"
  },
  {
    "text": "IFCE - Instituto Federal do Ceará"
  },
  {
    "text": "IFES - Instituto Federal do Espírito Santo"
  },
  {
    "text": "IFF - Instituto Federal Fluminense"
  },
  {
    "text": "IFFarroupilha - Instituto Federal Farroupilha"
  },
  {
    "text": "IFG - Instituto Federal de Goiás"
  },
  {
    "text": "IFMA - Instituto Federal do Maranhão"
  },
  {
    "text": "IFMG - Instituto Federal de Minas Gerais"
  },
  {
    "text": "IFMS - Instituto Federal de Mato Grosso do Sul"
  },
  {
    "text": "IFMT - Instituto Federal do Mato Grosso"
  },
  {
    "text": "IFNMG - Instituto Federal do Norte de Minas Gerais"
  },
  {
    "text": "IFPA - Instituto Federal do Pará"
  },
  {
    "text": "IFPB - Instituto Federal da Paraíba"
  },
  {
    "text": "IFPI - Instituto Federal do Piauí"
  },
  {
    "text": "IFPR - Instituto Federal do Paraná"
  },
  {
    "text": "IFRJ - Instituto Federal do Rio de Janeiro"
  },
  {
    "text": "IFRN - Instituto Federal do Rio Grande do Norte"
  },
  {
    "text": "IFRO - Instituto Federal de Rondônia"
  },
  {
    "text": "IFRR - Instituto Federal de Roraima"
  },
  {
    "text": "IFRS - Instituto Federal do Rio Grande do Sul"
  },
  {
    "text": "IFS - Instituto Federal de Sergipe"
  },
  {
    "text": "IFSC - Instituto Federal de Santa Catarina"
  },
  {
    "text": "IFSM - Instituto Federal do Sudeste de Minas"
  },
  {
    "text": "IFSP - Instituto Federal de Educação, Ciência e Tecnologia de São Paulo"
  },
  {
    "text": "IFSul - Instituto Federal Sul-rio-grandense"
  },
  {
    "text": "IFSULDEMINAS - Instituto Federal do Sul de Minas"
  },
  {
    "text": "IFTM - Instituto Federal do Triângulo Mineiro"
  },
  {
    "text": "IFTO - Instituto Federal do Tocantins"
  },
  {
    "text": "ILES/ULBRA - Instituto Luterano de Ensino Superior de Porto Velho"
  },
  {
    "text": "IME - Instituto Militar de Engenharia"
  },
  {
    "text": "IMEC - Instituto Maranhense de Ensino e Cultura (São Luís)"
  },
  {
    "text": "IMES Catanduva - Instituto Municipal de Ensino Superior de Catanduva"
  },
  {
    "text": "IMESA - Instituto Municipal de Ensino Superior de Assis"
  },
  {
    "text": "IMESB - Instituto Municipal de Ensino Superior de Bebedouro Victório Cardassi"
  },
  {
    "text": "IMESSM - Instituto Municipal de Ensino Superior de São Manuel"
  },
  {
    "text": "IMMES - Instituto Macapaense do Melhor Ensino Superior"
  },
  {
    "text": "IMMES - Instituto Matonense Municipal de Ensino Superior"
  },
  {
    "text": "IMT - Instituto Mauá de Tecnologia"
  },
  {
    "text": "IMT - Instituto Mauá de Tecnologia"
  },
  {
    "text": "INATEL - Instituto Nacional de Telecomunicações"
  },
  {
    "text": "INESC - Instituto de Ensino Superior Cenecista"
  },
  {
    "text": "INFNET - Instituto Infnet[4]"
  },
  {
    "text": "INPER - Insituto Paraibano de Ensino Renovado"
  },
  {
    "text": "INSJAR - Instituto Jordão de Arruda"
  },
  {
    "text": "Insper - Instituto de Ensino e Pesquisa"
  },
  {
    "text": "Instituto Federal de Educação, Ciência e Tecnologia de São Paulo (IFSP) Campus Sertãozinho"
  },
  {
    "text": "INTA - Instituto Superior de Teologia Aplicada"
  },
  {
    "text": "IPA - Centro Universitário Metodista do Instituto Porto Alegre"
  },
  {
    "text": "IPOG - Instituto de Pós-Graduação"
  },
  {
    "text": "IPOG - Instituto de Pós-Graduação (Pólo Natal)"
  },
  {
    "text": "IPOG - Instituto de Pós-Graduação & Graduação"
  },
  {
    "text": "IPTAN - Instituto de Ensino Superior Presidente Tancredo Neves"
  },
  {
    "text": "ISEAF - Instituto Superior de Educação Antonino Freire"
  },
  {
    "text": "ISEC - Instituto Superior de Educação de Cajazeiras"
  },
  {
    "text": "ISEC - Instituto Superior de Educação de Campos Gerais"
  },
  {
    "text": "ISERJ- Instituto Superior de Educação do Rio de Janeiro"
  },
  {
    "text": "ISES - Faculdade Sumaré"
  },
  {
    "text": "ITA - Instituto Tecnológico de Aeronáutica"
  },
  {
    "text": "ITE - Centro Universitário de Bauru"
  },
  {
    "text": "ITPAC - Instituto Tocantinense Presidente Antônio Carlos"
  },
  {
    "text": "ITPAC Porto - Instituto Tocantinense Presidente Antônio Carlos de Porto Nacional"
  },
  {
    "text": "IUESO - Instituto Unificado de Ensino Superior Objetivo"
  },
  {
    "text": "JAPI - Faculdade Japi"
  },
  {
    "text": "LA SALLE - Faculdade La Salle"
  },
  {
    "text": "LUMEN FAC - Faculdade de Ciências Contábeis Luiz Mendes"
  },
  {
    "text": "MACK - Universidade Presbiteriana Mackenzie"
  },
  {
    "text": "MACKENZIE-RIO - Faculdade Presbiteriana Mackenzie Rio"
  },
  {
    "text": "MARQUÊS - Instituto de Educação Cenecista Marquês de Herval"
  },
  {
    "text": "Mater Christi - Faculdade Mater Christi"
  },
  {
    "text": "META - Faculdade Meta"
  },
  {
    "text": "MULTIVIX - Faculdade Brasileira"
  },
  {
    "text": "Novafapi - Faculdade de Saúde, Ciências Humanas e Tecnológicas do Piauí"
  },
  {
    "text": "NovaUnesc - Faculdade Nova Unesc"
  },
  {
    "text": "OPET - Organização Paranaense de Ensino Técnico"
  },
  {
    "text": "PIO XII - Faculdade de Estudos Sociais do Espírito Santo"
  },
  {
    "text": "PUC - Pontifícia Universidade Católica de Goiás"
  },
  {
    "text": "PUC-Campinas - Pontifícia Universidade Católica de Campinas (PUCCAMP, antigamente)"
  },
  {
    "text": "PUC-RIO - Pontifícia Universidade Católica do Rio de Janeiro"
  },
  {
    "text": "PUCMG - Pontifícia Universidade Católica de Minas Gerais"
  },
  {
    "text": "PUCPR - Pontifícia Universidade Católica do Paraná"
  },
  {
    "text": "PUCRS - Pontifícia Universidade Católica do Rio Grande do Sul"
  },
  {
    "text": "PUCSP - Pontifícia Universidade Católica de São Paulo"
  },
  {
    "text": "REDENTOR - Sociedade Universitária Redentor (Faculdade Redentor)"
  },
  {
    "text": "Reitoria da Universidade de Taubaté (UNITAU)."
  },
  {
    "text": "SABERES - Faculdade Saberes"
  },
  {
    "text": "SECAL - Faculdade Santa Amélia"
  },
  {
    "text": "SECAL - Faculdade Santa Amélia"
  },
  {
    "text": "SENAC - Centro Universitário Senac - São Paulo"
  },
  {
    "text": "SENAC - Faculdade Senac - Distrito Federal"
  },
  {
    "text": "SENAC - Faculdade Senac - Rio Grande do Sul"
  },
  {
    "text": "SENAC - Faculdade Senac - Santa Catarina"
  },
  {
    "text": "SENAC - Faculdade Senac Rio de Janeiro"
  },
  {
    "text": "SJT - Instituição Educacional São Judas Tadeu"
  },
  {
    "text": "SLMANDIC - Faculdade de Odontologia e Centro de Pesquisas Odontológicas São Leopoldo Mandic"
  },
  {
    "text": "SOCIESC - Sociedade Educacional de Santa Catarina"
  },
  {
    "text": "TECMED - Faculdade de Tecnologia Tecmed"
  },
  {
    "text": "UAM - Universidade Anhembi Morumbi"
  },
  {
    "text": "UBC - Universidade Braz Cubas"
  },
  {
    "text": "UBM - Centro Universitário de Barra Mansa"
  },
  {
    "text": "UCAM - Universidade Cândido Mendes"
  },
  {
    "text": "UCB - Universidade Castelo Branco"
  },
  {
    "text": "UCB - Universidade Católica de Brasília"
  },
  {
    "text": "UCDB - Universidade Católica Dom Bosco"
  },
  {
    "text": "UCESP - Faculdade União Cultural do Estado de São Paulo"
  },
  {
    "text": "UCL - Faculdade do Centro Leste"
  },
  {
    "text": "UCP - Faculdades do Centro do Paraná"
  },
  {
    "text": "UCP - Universidade Católica de Petrópolis"
  },
  {
    "text": "UCPEL - Universidade Católica de Pelotas"
  },
  {
    "text": "UCS - Universidade de Caxias do Sul"
  },
  {
    "text": "UDC - Centro Universitário União Dinâmica das Cataratas"
  },
  {
    "text": "UDESC - Universidade do Estado de Santa Catarina"
  },
  {
    "text": "UDF - Centro Universitário do Distrito Federal"
  },
  {
    "text": "UEA - Universidade do Estado do Amazonas"
  },
  {
    "text": "Ueap - Universidade Estadual do Amapá"
  },
  {
    "text": "UEB - Universidade Eletrônica do Brasil"
  },
  {
    "text": "UECE - Universidade Estadual do Ceará"
  },
  {
    "text": "UEG - Universidade Estadual de Goiás"
  },
  {
    "text": "UEL - Universidade Estadual de Londrina"
  },
  {
    "text": "UEM - Universidade Estadual de Maringá"
  },
  {
    "text": "UEMA - Universidade Estadual do Maranhão"
  },
  {
    "text": "UEMASUL - Universidade Estadual da Região Tocantina do Maranhão"
  },
  {
    "text": "UEMG - Universidade do Estado de Minas Gerais"
  },
  {
    "text": "UEMS - Universidade Estadual do Mato Grosso do Sul"
  },
  {
    "text": "UENF - Universidade Estadual do Norte Fluminense"
  },
  {
    "text": "UENP - Universidade Estadual do Norte do Paraná"
  },
  {
    "text": "UEPA - Universidade do Estado do Pará"
  },
  {
    "text": "UEPB - Universidade Estadual da Paraíba"
  },
  {
    "text": "UEPG - Universidade Estadual de Ponta Grossa"
  },
  {
    "text": "UERGS - Universidade Estadual do Rio Grande do Sul"
  },
  {
    "text": "UERJ - Universidade do Estado do Rio de Janeiro"
  },
  {
    "text": "UERN - Universidade do Estado do Rio Grande do Norte"
  },
  {
    "text": "UERR - Universidade Estadual de Roraima"
  },
  {
    "text": "UESPI - Universidade Estadual do Piauí"
  },
  {
    "text": "UEZO - Universidade Estadual da Zona Oeste[3]"
  },
  {
    "text": "UFABC - Universidade Federal do ABC"
  },
  {
    "text": "Ufac - Universidade Federal do Acre"
  },
  {
    "text": "Ufal - Universidade Federal de Alagoas"
  },
  {
    "text": "UFAM - Universidade Federal do Amazonas"
  },
  {
    "text": "UFC - Universidade Federal do Ceará"
  },
  {
    "text": "UFCA - Universidade Federal do Cariri"
  },
  {
    "text": "UFCat - Universidade Federal de Catalão"
  },
  {
    "text": "UFCG - Universidade Federal de Campina Grande"
  },
  {
    "text": "UFCSPA - Universidade Federal de Ciências da Saúde de Porto Alegre"
  },
  {
    "text": "UFERSA - Universidade Federal Rural do Semi-Árido"
  },
  {
    "text": "UFES - Universidade Federal do Espírito Santo"
  },
  {
    "text": "UFF - Universidade Federal Fluminense"
  },
  {
    "text": "UFFS - Universidade Federal da Fronteira do Sul"
  },
  {
    "text": "UFFS - Universidade Federal da Fronteira do Sul"
  },
  {
    "text": "UFFS - Universidade Federal da Fronteira Sul"
  },
  {
    "text": "UFG - Universidade Federal de Goiás"
  },
  {
    "text": "UFGD - Universidade Federal da Grande Dourados"
  },
  {
    "text": "UFJat - Universidade Federal de Jataí"
  },
  {
    "text": "UFJF - Universidade Federal de Juiz de Fora"
  },
  {
    "text": "UFLA - Universidade Federal de Lavras"
  },
  {
    "text": "UFMA - Universidade Federal do Maranhão"
  },
  {
    "text": "UFMG - Universidade Federal de Minas Gerais"
  },
  {
    "text": "UFMS - Universidade Federal do Mato Grosso do Sul"
  },
  {
    "text": "UFMT - Universidade Federal de Mato Grosso"
  },
  {
    "text": "UFN - Universidade Franciscana[13]"
  },
  {
    "text": "UFOP - Universidade Federal de Ouro Preto"
  },
  {
    "text": "UFOPA - Universidade Federal do Oeste do Pará"
  },
  {
    "text": "UFPA - Universidade Federal do Pará"
  },
  {
    "text": "UFPB - Universidade Federal da Paraíba"
  },
  {
    "text": "UFPDra - Universidade Federal do Delta do Parnaíba[12]"
  },
  {
    "text": "UFPEL - Universidade Federal de Pelotas"
  },
  {
    "text": "UFPI - Universidade Federal do Piauí"
  },
  {
    "text": "UFPR - Universidade Federal do Paraná"
  },
  {
    "text": "UFRA - Universidade Federal Rural da Amazônia"
  },
  {
    "text": "UFRGS - Universidade Federal do Rio Grande do Sul"
  },
  {
    "text": "UFRJ - Universidade Federal do Rio de Janeiro"
  },
  {
    "text": "UFRN - Universidade Federal do Rio Grande do Norte"
  },
  {
    "text": "UFRR - Universidade Federal de Roraima"
  },
  {
    "text": "UFRRJ - Universidade Federal Rural do Rio de Janeiro"
  },
  {
    "text": "UFS - Universidade Federal de Sergipe"
  },
  {
    "text": "UFSC - Universidade Federal de Santa Catarina"
  },
  {
    "text": "UFSCar - Universidade Federal de São Carlos"
  },
  {
    "text": "UFSJ - Universidade Federal de São João del-Rei"
  },
  {
    "text": "UFSM - Universidade Federal de Santa Maria"
  },
  {
    "text": "UFT - Universidade Federal do Tocantins"
  },
  {
    "text": "UFTM - Universidade Federal do Triângulo Mineiro"
  },
  {
    "text": "UFU - Universidade Federal de Uberlândia"
  },
  {
    "text": "UFV - Universidade Federal de Viçosa"
  },
  {
    "text": "UFVJM - Universidade Federal dos Vales do Jequitinhonha e Mucuri"
  },
  {
    "text": "UGB - Centro Universitário Geraldo Di Biase"
  },
  {
    "text": "UGS - Universidade Gama e Souza"
  },
  {
    "text": "UIT - Universidade de Itaúna"
  },
  {
    "text": "ULBRA - Universidade Luterana do Brasil"
  },
  {
    "text": "ULBRA - Universidade Luterana do Brasil"
  },
  {
    "text": "ULBRA - Universidade Luterana do Brasil"
  },
  {
    "text": "ULBRA - Universidade Luterana do Brasil - EAD"
  },
  {
    "text": "ULBRA - Universidade Luterana do Brasil (Polo Natal)"
  },
  {
    "text": "UMC - Universidade de Mogi das Cruzes"
  },
  {
    "text": "UMESP - Universidade Metodista de São Paulo"
  },
  {
    "text": "UNA - Centro Universitário UNA"
  },
  {
    "text": "UNAERP - Universidade de Ribeirão Preto"
  },
  {
    "text": "UNAES - Centro Universitário de Campo Grande"
  },
  {
    "text": "UNAMA - Universidade da Amazônia"
  },
  {
    "text": "UNASP - Centro Universitário Adventista de São Paulo"
  },
  {
    "text": "UnB - Universidade de Brasília"
  },
  {
    "text": "UNC - Universidade do Contestado"
  },
  {
    "text": "Uncisal - Universidade Estadual de Ciências da Saúde de Alagoas"
  },
  {
    "text": "UNDB - Unidade de Ensino Superior Dom Bosco (São Luís)"
  },
  {
    "text": "Uneal - Universidade Estadual de Alagoas"
  },
  {
    "text": "UNEMAT - Universidade do Estado de Mato Grosso"
  },
  {
    "text": "UNERJ - Centro Universitário de Jaraguá do Sul"
  },
  {
    "text": "UNESA - Universidade Estácio de Sá"
  },
  {
    "text": "UNESA - Universidade Estácio de Sá"
  },
  {
    "text": "UNESA - Universidade Estácio de Sá"
  },
  {
    "text": "UNESC - Centro Universitário do Espírito Santo"
  },
  {
    "text": "UNESC - Faculdades Integradas de Cacoal"
  },
  {
    "text": "UNESC - Universidade do Extremo Sul Catarinense"
  },
  {
    "text": "UNESP - Universidade Estadual Paulista"
  },
  {
    "text": "UNESPAR - Universidade Estadual do Paraná"
  },
  {
    "text": "UNEST - União Educacional de Ensino Superior do Médio Tocantins"
  },
  {
    "text": "UNG - Universidade Guarulhos"
  },
  {
    "text": "Uni-FACEF - Centro Universitário de Franca"
  },
  {
    "text": "Uni-FACEF (Centro Universitário Municipal de Franca)."
  },
  {
    "text": "UniABC - Universidade do Grande ABC"
  },
  {
    "text": "UNIABEU - UNIABEU Centro Universitário"
  },
  {
    "text": "UNIANDRADE - Centro Universitário Campos de Andrade"
  },
  {
    "text": "UNIANHANGUERA - Anhanguera Educacional S.A."
  },
  {
    "text": "Unianhanguera - Universidade Anhanguera"
  },
  {
    "text": "UNIARA - Universidade de Araraquara"
  },
  {
    "text": "UNIARAXÁ - Centro Universitário do Planalto de Araxá"
  },
  {
    "text": "UNIARP - Universidade Alto Vale do Rio do Peixe"
  },
  {
    "text": "UNIASSELVI - Centro Universitário Leonardo da Vinci"
  },
  {
    "text": "UNIBAN - Universidade Bandeirante de São Paulo"
  },
  {
    "text": "UNIBAVE - Universidade Barriga Verde"
  },
  {
    "text": "UNIBERO - Centro Universitário Anhanguera de São Paulo"
  },
  {
    "text": "UNIBH - Centro Universitário de Belo Horizonte"
  },
  {
    "text": "UNIBRATEC - Faculdade de Tecnologia Ibratec"
  },
  {
    "text": "UNIC - Universidade de Cuiabá"
  },
  {
    "text": "UNICAMP - Universidade Estadual de Campinas"
  },
  {
    "text": "UNICAMPO - Faculdade União de Campo Mourão[10]"
  },
  {
    "text": "UNICARIOCA - Centro Universitário Carioca"
  },
  {
    "text": "UNICASTELO - Universidade Camilo Castelo Branco"
  },
  {
    "text": "UNICENTRO - Universidade Estadual do Centro-Oeste"
  },
  {
    "text": "UNICEP - Centro Universitário Central Paulista"
  },
  {
    "text": "UNICERP - Centro Universitário do Cerrado - Patrocínio"
  },
  {
    "text": "UNICEUMA - Centro Universitário do Maranhão (São Luís)"
  },
  {
    "text": "UNICHRISTUS - Centro Universitário Christus"
  },
  {
    "text": "UniCOC - Sistema COC de Educação"
  },
  {
    "text": "UNICRUZ - Universidade de Cruz Alta"
  },
  {
    "text": "UNICSUL - Universidade Cruzeiro do Sul"
  },
  {
    "text": "UNICURITIBA - Centro Universitário Curitiba"
  },
  {
    "text": "UNIDERP - Universidade para o Desenvolvimento do Estado e Região do Pantanal"
  },
  {
    "text": "UNIDESC - Centro Universitário de Desenvolvimento do Centro Oeste"
  },
  {
    "text": "UNIDOM - Universidade Dom Pedro II"
  },
  {
    "text": "UNIEURO - Centro Universitário Euroamericano"
  },
  {
    "text": "UniEvangelica - Universidade Evangélica"
  },
  {
    "text": "UNIFAE - Centro Universitário das Faculdades Associadas de Ensino"
  },
  {
    "text": "UNIFAI - Centro Universitário Assunção"
  },
  {
    "text": "UNIFAL - Universidade Federal de Alfenas"
  },
  {
    "text": "UNIFAMETRO - Centro Universitário Fametro [3]"
  },
  {
    "text": "UNIFANOR - Centro Universitário Unifanor"
  },
  {
    "text": "UNIFAP - Universidade Federal do Amapá"
  },
  {
    "text": "UNIFASC - Faculdade Santa Rita de Cássia"
  },
  {
    "text": "UNIFEB - Centro Universitário da Fundação Educacional de Barretos[20]"
  },
  {
    "text": "UNIFEBE - Centro Universitário de Brusque"
  },
  {
    "text": "UNIFEI - Universidade Federal de Itajubá"
  },
  {
    "text": "UNIFEMM - Centro Universitário de Sete Lagoas \"Monsenhor Messias"
  },
  {
    "text": "UNIFENAS - Universidade de Alfenas José do Rosário Vellano"
  },
  {
    "text": "UNIFEOB - Centro Universitário Octávio Bastos"
  },
  {
    "text": "UNIFESO - Centro Universitário Serra dos Órgãos"
  },
  {
    "text": "UNIFESP - Universidade Federal de São Paulo"
  },
  {
    "text": "UNIFESSPA - Universidade Federal do Sul e Sudeste do Pará"
  },
  {
    "text": "UNIFIEO - Centro Universitário FIEO"
  },
  {
    "text": "UNIFIL - Centro Universitário Filadélfia[8]"
  },
  {
    "text": "UNIFIP - Centro Universitário de Patos"
  },
  {
    "text": "UNIFOA - Centro Universitário de Volta Redonda"
  },
  {
    "text": "UNIFOR - Universidade de Fortaleza"
  },
  {
    "text": "UNIFORMG - Centro Universitário de Formiga"
  },
  {
    "text": "UNIFRAN - Universidade de Franca"
  },
  {
    "text": "UNIFUTURO - Faculdades Integradas do Brasil"
  },
  {
    "text": "UNIGRAN - Centro Universitário da Grande Dourados"
  },
  {
    "text": "UNIGRANDE - Centro Universitário da Grande Fortaleza"
  },
  {
    "text": "UNIGRANRIO - Universidade do Grande Rio"
  },
  {
    "text": "UNIJIPA - Faculdade Panamericana de Ji-Paraná"
  },
  {
    "text": "UNIJUÍ - Universidade Regional do Noroeste do Estado do Rio Grande do Sul"
  },
  {
    "text": "UNILA - Universidade Federal da Integração Latino-Americana"
  },
  {
    "text": "UNILAB - Universidade Federal de Integração Luso-Afro-Brasileira"
  },
  {
    "text": "UNILAGO - União das Faculdades dos Grandes Lagos[21]"
  },
  {
    "text": "UNILASALLE-RJ - Universidade La Salle - RJ[5]"
  },
  {
    "text": "UNILAVRAS - Centro Universitário de Lavras"
  },
  {
    "text": "UNILESTE - Centro Universitário do Leste de Minas Gerais"
  },
  {
    "text": "UNIMAR - Universidade de Marília"
  },
  {
    "text": "UNIMEP - Universidade Metodista de Piracicaba"
  },
  {
    "text": "UNIMES - Universidade Metropolitana de Santos"
  },
  {
    "text": "UNIMONTE - Centro Universitário Monte Serrat"
  },
  {
    "text": "UNIMONTES - Universidade Estadual de Montes Claros"
  },
  {
    "text": "UNINASSAU - Faculdade Maurício de Nassau - (Pólo Natal)"
  },
  {
    "text": "UNINASSAU - Faculdade Maurício de Nassau[33]"
  },
  {
    "text": "UNINGÁ - Faculdade Ingá"
  },
  {
    "text": "UNINILTONLINS - Centro Universitário Nilton Lins"
  },
  {
    "text": "Uninorte - Centro Universitário do Norte"
  },
  {
    "text": "Uninorte - União Educacional do Norte"
  },
  {
    "text": "UNINOVE - Campus Memorial - São Paulo/SP."
  },
  {
    "text": "UNINOVE - Universidade Nove de Julho"
  },
  {
    "text": "UNINTER - Grupo Educacional Uninter"
  },
  {
    "text": "UNIOESTE - Universidade Estadual do Oeste do Paraná"
  },
  {
    "text": "Unip - Universidade Paulista"
  },
  {
    "text": "UNIPAC - Universidade Presidente Antônio Carlos"
  },
  {
    "text": "UNIPAM - Centro Universitário de Patos de Minas"
  },
  {
    "text": "UNIPAMPA - Universidade Federal do Pampa"
  },
  {
    "text": "UNIPAR - Universidade Paranaense"
  },
  {
    "text": "UNIPB - Faculdade Unida da Paraíba"
  },
  {
    "text": "UNIPLAC - Universidade do Planalto Catarinense"
  },
  {
    "text": "UNIPLAN - Centro Universitário Planalto do Distrito Federal"
  },
  {
    "text": "UNIR - Universidade Federal de Rondônia"
  },
  {
    "text": "UNIRB - Faculdade Serigy [30]"
  },
  {
    "text": "UnirG - Centro Universitário UnirG"
  },
  {
    "text": "UNIRIO - Universidade Federal do Estado do Rio de Janeiro"
  },
  {
    "text": "UNIRITTER - Centro Universitário Ritter dos Reis"
  },
  {
    "text": "UNIRON - Faculdade Interamericana de Porto Velho"
  },
  {
    "text": "UNIRONDON - Centro Universitário Cândido Rondon"
  },
  {
    "text": "UNIRP - Centro Universitário de Rio Preto"
  },
  {
    "text": "UniRV (FESURV) - Universidade de Rio Verde"
  },
  {
    "text": "UNISA - Universidade de Santo Amaro[19]"
  },
  {
    "text": "UNISAL - Centro Universitário Salesiano de São Paulo"
  },
  {
    "text": "UNISALESIANO - Centro Universitário Católico Salesiano Auxilium"
  },
  {
    "text": "Unisalle - Faculdade La Salle"
  },
  {
    "text": "UNISANT'ANNA - Universidade Sant'Anna"
  },
  {
    "text": "UNISANTA - Universidade Santa Cecília"
  },
  {
    "text": "UNISANTOS - Universidade Católica de Santos"
  },
  {
    "text": "UniSãopaulo - Instituto São Paulo de Formação e Especialização Profissional"
  },
  {
    "text": "UNISC - Universidade de Santa Cruz do Sul"
  },
  {
    "text": "UNISEB - Centro Universitário Estácio UniSEB - Brasília"
  },
  {
    "text": "UNISEB - Centro Universitário Estácio UniSEB -São Paulo"
  },
  {
    "text": "UNISEP - União de Ensino do Sudoeste do Paraná [11]"
  },
  {
    "text": "UNISINOS - Universidade do Vale do Rio dos Sinos"
  },
  {
    "text": "UNISO - Universidade de Sorocaba"
  },
  {
    "text": "UNISUAM - Centro Universitário Augusto Motta"
  },
  {
    "text": "UNISUL - Universidade do Sul de Santa Catarina"
  },
  {
    "text": "UNISUL - Universidade do Sul de Santa Catarina"
  },
  {
    "text": "Unit - Universidade Tiradentes"
  },
  {
    "text": "UNITAU - Universidade de Taubaté"
  },
  {
    "text": "UNITINS - Fundação Universidade do Tocantins"
  },
  {
    "text": "UNITRI - Centro Universitário do Triângulo"
  },
  {
    "text": "UNIUBE - Universidade de Uberaba"
  },
  {
    "text": "UNIUOL - Faculdade de Tecnologia do Uniuol"
  },
  {
    "text": "UNIVAG - Centro Universitário de Várzea Grande"
  },
  {
    "text": "UNIVALE - Universidade Vale do Rio Doce"
  },
  {
    "text": "UNIVALI - Universidade do Vale do Itajaí"
  },
  {
    "text": "UNIVAP - Universidade do Vale do Paraíba"
  },
  {
    "text": "UNIVAR - Universidades Unidas do Vale do Araguaia-Barra do Garças"
  },
  {
    "text": "UNIVAS - Universidade do Vale do Sapucaí"
  },
  {
    "text": "UNIVASF - Universidade Federal do Vale do São Francisco"
  },
  {
    "text": "UNIVATES - Centro Universitário UNIVATES"
  },
  {
    "text": "Univel - União Educacional de Cascavel"
  },
  {
    "text": "UNIVEM - Centro Universitário Eurípedes de Marília"
  },
  {
    "text": "UNIVERITAS - Centro Universitário Universus Veritas"
  },
  {
    "text": "UNIVERSITAS - Centro Universitário de Itajubá"
  },
  {
    "text": "UNIVERSO - Universidade Salgado de Oliveira"
  },
  {
    "text": "UNIVESP - Universidade Virtual do Estado de São Paulo"
  },
  {
    "text": "UNIVIÇOSA - União de Ensino Superior de Viçosa"
  },
  {
    "text": "UNIVILLE - Universidade da Região de Joinville"
  },
  {
    "text": "UNOCHAPECÓ - Universidade Comunitária Regional de Chapecó"
  },
  {
    "text": "UNOESC - Universidade do Oeste de Santa Catarina"
  },
  {
    "text": "UNOESTE - Universidade do Oeste Paulista"
  },
  {
    "text": "UNOPAR - universidade á distancia do norte do Paraná"
  },
  {
    "text": "UNOPAR - Universidade Norte do Paraná"
  },
  {
    "text": "UNOPAR - Universidade Norte do Paraná (Polo Natal)"
  },
  {
    "text": "UNORP - Centro Universitário do Norte Paulista"
  },
  {
    "text": "UNP - Universidade Potiguar"
  },
  {
    "text": "UP - Universidade Positivo"
  },
  {
    "text": "UPA - Universidade Patativa do Assaré"
  },
  {
    "text": "UPF - Universidade de Passo Fundo"
  },
  {
    "text": "UPIS - União Pioneira de Integração Social"
  },
  {
    "text": "URCA - Universidade Regional do Cariri"
  },
  {
    "text": "URCAMP - Universidade da Região da Campanha"
  },
  {
    "text": "URI - Universidade Regional Integrada do Alto Uruguai e das Missões"
  },
  {
    "text": "USCS - Universidade Municipal de São Caetano do Sul"
  },
  {
    "text": "USF - Universidade São Francisco"
  },
  {
    "text": "USJ - Universidade Municipal de São José"
  },
  {
    "text": "USJT - Universidade São Judas Tadeu"
  },
  {
    "text": "USP - Universidade de São Paulo"
  },
  {
    "text": "USS - Universidade Severino Sombra"
  },
  {
    "text": "USU - Universidade Santa Úrsula"
  },
  {
    "text": "UTFPR - Universidade Tecnológica Federal do Paraná"
  },
  {
    "text": "UTP - Universidade Tuiuti do Paraná"
  },
  {
    "text": "UVA - Universidade Estadual Vale do Acaraú"
  },
  {
    "text": "UVA - Universidade Veiga de Almeida"
  },
  {
    "text": "UVV - Universidade Vila Velha"
  }
]