{
    "key": "group_5ddff317d13c6",
    "title": "Outros Links",
    "fields": [
        {
            "key": "field_5887d7e2ca452",
            "label": "Páginas",
            "name": "paginas",
            "type": "relationship",
            "instructions": "",
            "required": 0,
            "conditional_logic": 0,
            "wrapper": {
                "width": "",
                "class": "",
                "id": ""
            },
            "return_format": "object",
            "post_type": [
                "post",
                "page"
            ],
            "taxonomy": [],
            "filters": [
                "search"
            ],
            "max": 2,
            "min": 0,
            "elements": ""
        }
    ],
    "location": [
        [
            {
                "param": "post_type",
                "operator": "==",
                "value": "page"
            },
            {
                "param": "page_type",
                "operator": "==",
                "value": "top_level"
            }
        ]
    ],
    "menu_order": 10,
    "position": "normal",
    "style": "default",
    "label_placement": "top",
    "instruction_placement": "label",
    "hide_on_screen": "",
    "active": 1,
    "description": "",
    "modified": 1574958269
}